…
<img src="case_study_files/figure-gfm/unnamed-chunk-6-1.png" width="90%" />

Somewhat fancy boxplot!

``` r
nyc_airbnb %>% 
  filter(borough == "Manhattan") %>% 
  group_by(neighbourhood) %>% 
  summarize(mean_price = mean(price, na.rm = TRUE)) %>% 
  arrange(desc(mean_price))
```

    ## # A tibble: 32 × 2
    ##    neighbourhood     mean_price
    ##    <chr>                  <dbl>
    ##  1 Tribeca                 353.
    ##  2 Flatiron District       319.
    ##  3 NoHo                    302.
    ##  4 Greenwich Village       258.
    ##  5 SoHo                    256.
    ##  6 Midtown                 251.
    ##  7 West Village            239.
    ##  8 Chelsea                 233.
    ##  9 Theater District        232.
    ## 10 Battery Park City       221.
    ## # … with 22 more rows
…
